[
    {
        "song": false,
        "continue": false,
        "slide": "/img/galaxy.jpg",
        "fade": false,
        "wait": false
    },
    {
        "song": "/mus/closingsong.mp3",
        "continue": false,
        "slide": "/img/galaxy.jpg",
        "fade": false,
        "wait": false
    },
    {
        "song": false,
        "continue": false,
        "slide": false,
        "fade": false,
        "wait": false
    },
    {
        "song": false,
        "continue": true,
        "slide": "/img/oneliners.png",
        "fade": false,
        "wait": false
    },
    {
        "song": "/mus/2.mp3",
        "continue": false,
        "slide": "/img/galaxy.jpg",
        "fade": false,
        "wait": false
    },
    {
        "song": false,
        "continue": false,
        "slide": false,
        "fade": false,
        "wait": false
    },
    {
        "song": false,
        "continue": true,
        "slide": "/img/goodbadandugly.png",
        "fade": false,
        "wait": false
    },
    {
        "song": "/mus/4.mp3",
        "continue": false,
        "slide": "/img/galaxy.jpg",
        "fade": false,
        "wait": false
    },
    {
        "song": false,
        "continue": false,
        "slide": false,
        "fade": false,
        "wait": false
    },
    {
        "song": false,
        "continue": true,
        "slide": "/img/timecrunch.png",
        "fade": false,
        "wait": false
    },
    {
        "song": "/mus/4.mp3",
        "continue": false,
        "slide": "/img/galaxy.jpg",
        "fade": false,
        "wait": false
    },
    {
        "song": false,
        "continue": false,
        "slide": false,
        "fade": false,
        "wait": false
    },
    {
        "song": false,
        "continue": true,
        "slide": "/img/partyquirks.png",
        "fade": false,
        "wait": false
    },
    {
        "song": "/mus/3.mp3",
        "continue": false,
        "slide": "/img/galaxy.jpg",
        "fade": false,
        "wait": false
    },
    {
        "song": false,
        "continue": false,
        "slide": false,
        "fade": false,
        "wait": false
    },
    {
        "song": false,
        "continue": true,
        "slide": "/img/funeraldirector.png",
        "fade": false,
        "wait": false
    },
    {
        "song": "/mus/2.mp3",
        "continue": false,
        "slide": "/img/galaxy.jpg",
        "fade": false,
        "wait": false
    },
    {
        "song": false,
        "continue": false,
        "slide": false,
        "fade": false,
        "wait": false
    },
    {
        "song": false,
        "continue": true,
        "slide": "/img/switcheroo.png",
        "fade": false,
        "wait": false
    },
    {
        "song": "/mus/4.mp3",
        "continue": false,
        "slide": "/img/galaxy.jpg",
        "fade": false,
        "wait": false
    },
    {
        "song": "/mus/newsintro.mp3",
        "continue": false,
        "slide": false,
        "fade": false,
        "wait": false
    },
    {
        "song": "/mus/newsintro.mp3",
        "continue": false,
        "slide": false,
        "fade": false,
        "wait": false
    },
    {
        "song": false,
        "continue": false,
        "slide": false,
        "fade": false,
        "wait": false
    },
    {
        "song": false,
        "continue": true,
        "slide": "/img/weirdnewscasters.png",
        "fade": false,
        "wait": false
    },
    {
        "song": "/mus/3.mp3",
        "continue": false,
        "slide": "/img/galaxy.jpg",
        "fade": false,
        "wait": false
    },
    {
        "song": false,
        "continue": false,
        "slide": false,
        "fade": false,
        "wait": false
    },
    {
        "song": false,
        "continue": true,
        "slide": "/img/comedycube.png",
        "fade": false,
        "wait": false
    },
    {
        "song": "/mus/3.mp3",
        "continue": false,
        "slide": "/img/galaxy.jpg",
        "fade": false,
        "wait": false
    },
    {
        "song": false,
        "continue": false,
        "slide": false,
        "fade": false,
        "wait": false
    },
    {
        "song": false,
        "continue": true,
        "slide": "/img/freeze.png",
        "fade": false,
        "wait": false
    },
    {
        "song": false,
        "continue": true,
        "slide": false,
        "fade": true,
        "wait": false
    },
    {
        "song": "/mus/openingsong.mp3",
        "continue": false,
        "slide": "/img/galaxy.jpg",
        "fade": false,
        "wait": "5000"
    }
]