[
    {
        "name": "Two Two One",
        "file-name": "2 2 1.png"
    },
    {
        "name": "Black",
        "file-name": "black.png"
    },
    {
        "name": "Blues",
        "file-name": "blues.png"
    },
    {
        "name": "Braile Storybook",
        "file-name": "braileStorybook.png"
    },
    {
        "name": "Brazilian",
        "file-name": "brazilian.png"
    },
    {
        "name": "Broadway Star",
        "file-name": "broadwaystar.png"
    },
    {
        "name": "Bucket",
        "file-name": "bucket.png"
    },
    {
        "name": "Challenge",
        "file-name": "Challenge.png"
    },
    {
        "name": "Chubby Bunny",
        "file-name": "chubbybunny.png"
    },
    {
        "name": "Comedy Cube",
        "file-name": "comedycube.png"
    },
    {
        "name": "Contact",
        "file-name": "contact.png"
    },
    {
        "name": "Crunch Time",
        "file-name": "crunchtime.png"
    },
    {
        "name": "Doo Wop",
        "file-name": "doowop.png"
    },
    {
        "name": "Everyday Olympics",
        "file-name": "everydayolympics.png"
    },
    {
        "name": "Evil Twin",
        "file-name": "eviltwin.png"
    },
    {
        "name": "Explain Yourself",
        "file-name": "explainyourself.png"
    },
    {
        "name": "Film Noir",
        "file-name": "filmnoir.png"
    },
    {
        "name": "Film TV",
        "file-name": "filmtv.png"
    },
    {
        "name": "Fortune Teller",
        "file-name": "fortuneteller.png"
    },
    {
        "name": "Freeze",
        "file-name": "freeze.png"
    },
    {
        "name": "Funeral Director",
        "file-name": "funeraldirector.png"
    },
    {
        "name": "Galaxy",
        "file-name": "galaxy.png"
    },
    {
        "name": "Gibberish",
        "file-name": "gibberish.png"
    },
    {
        "name": "Good Bad and Ugly",
        "file-name": "goodbadandugly.png"
    },
    {
        "name": "Headphones",
        "file-name": "headphones.png"
    },
    {
        "name": "Helping Hands",
        "file-name": "helpinghands.png"
    },
    {
        "name": "Herr Director",
        "file-name": "herr director.png"
    },
    {
        "name": "Hoedown",
        "file-name": "hoedown.png"
    },
    {
        "name": "In so many words",
        "file-name": "insomanywords.png"
    },
    {
        "name": "Invention",
        "file-name": "invention.png"
    },
    {
        "name": "Irish Drinking Song",
        "file-name": "irishdrinkingsong.png"
    },
    {
        "name": "Juice",
        "file-name": "juice.png"
    },
    {
        "name": "Kenny",
        "file-name": "kenny.png"
    },
    {
        "name": "Line Please",
        "file-name": "lineplease.png"
    },
    {
        "name": "LP Alum",
        "file-name": "lp_alum.png"
    },
    {
        "name": "Meanwhile",
        "file-name": "meanwhile.png"
    },
    {
        "name": "Mixtape",
        "file-name": "mixtape.png"
    },
    {
        "name": "Movie Critic",
        "file-name": "movie critic.png"
    },
    {
        "name": "Moving People",
        "file-name": "movingpeople.png"
    },
    {
        "name": "One Liners",
        "file-name": "oneliners.png"
    },
    {
        "name": "Oscar Winning",
        "file-name": "oscar winning.png"
    },
    {
        "name": "Party Quirks",
        "file-name": "partyquirks.png"
    },
    {
        "name": "Pepper",
        "file-name": "Pepper.png"
    },
    {
        "name": "Pick up Lines",
        "file-name": "pick up lines.png"
    },
    {
        "name": "Piespeare",
        "file-name": "piespeare.png"
    },
    {
        "name": "Range of Emotions",
        "file-name": "rangeofemotions.png"
    },
    {
        "name": "Scene Spot",
        "file-name": "scenespot.png"
    },
    {
        "name": "Seashanty",
        "file-name": "seashanty.png"
    },
    {
        "name": "Sesame",
        "file-name": "sesame.png"
    },
    {
        "name": "Shakespeare",
        "file-name": "shakespeare.png"
    },
    {
        "name": "Shanty Shant",
        "file-name": "shanty shant.png"
    },
    {
        "name": "Show Me",
        "file-name": "show me.png"
    },
    {
        "name": "Silent Film Gamecard",
        "file-name": "silent film gamecard.png"
    },
    {
        "name": "Sit Stand Kneel",
        "file-name": "sitstandkneel.png"
    },
    {
        "name": "Slideshow",
        "file-name": "slideshow.png"
    },
    {
        "name": "Spacejump",
        "file-name": "spacejump.png"
    },
    {
        "name": "Spitterish",
        "file-name": "spitterish.png"
    },
    {
        "name": "Storybook Theater",
        "file-name": "storybook theater.png"
    },
    {
        "name": "Sucks to be you",
        "file-name": "sucks2bu.png"
    },
    {
        "name": "Super Computer",
        "file-name": "super computer.png"
    },
    {
        "name": "Super Heros",
        "file-name": "superheroes.png"
    },
    {
        "name": "Switcheroo",
        "file-name": "switcheroo.png"
    },
    {
        "name": "Teamonade",
        "file-name": "teamonade.png"
    },
    {
        "name": "The Dating Game",
        "file-name": "thedatinggame.png"
    },
    {
        "name": "Three Headed Song Machine",
        "file-name": "threeheadedsongmachine.png"
    },
    {
        "name": "Throwdown",
        "file-name": "throwdown.png"
    },
    {
        "name": "Time Crunch",
        "file-name": "timecrunch.png"
    },
    {
        "name": "Town Hall",
        "file-name": "townhall2.png"
    },
    {
        "name": "Weekend at Bernies",
        "file-name": "weekend at bernies.png"
    },
    {
        "name": "Weekend at Vinnies",
        "file-name": "weekendatvin.png"
    },
    {
        "name": "Weird Newscasters",
        "file-name": "weirdnewscasters.png"
    },
    {
        "name": "What you got",
        "file-name": "whatyougot.png"
    },
    {
        "name": "Wonderful Lie",
        "file-name": "wonderfullie.png"
    }
]